{
    "addContactFunction": {
        "PHONE_BOOK": "Contacts",
        "AWS_NODEJS_CONNECTION_REUSE_ENABLED": "1",
        "RUN_ENV": "PROD",
        "DB_TYPE": "dynamo",
        "LOCAL_DB_TABLE": "Contacts",
        "LOCAL_DB_ACCESS_KEY": "123",
        "LOCAL_DB_SECRET_ACCESS_KEY": "abc",
        "LOCAL_DB_HOST": "http://dynamo-local",
        "LOCAL_DB_PORT": "0000",
        "LOCAL_DB_REGION": "localhost"
    },

    "getContactByIdFunction": {
        "PHONE_BOOK": "Contacts",
        "AWS_NODEJS_CONNECTION_REUSE_ENABLED": "1",
        "RUN_ENV": "PROD",
        "DB_TYPE": "dynamo",
        "LOCAL_DB_TABLE": "Contacts",
        "LOCAL_DB_ACCESS_KEY": "123",
        "LOCAL_DB_SECRET_ACCESS_KEY": "abc",
        "LOCAL_DB_HOST": "http://dynamo-local",
        "LOCAL_DB_PORT": "0000",
        "LOCAL_DB_REGION": "localhost"
    },

    "updateContactFunction": {
        "PHONE_BOOK": "Contacts",
        "AWS_NODEJS_CONNECTION_REUSE_ENABLED": "1",
        "RUN_ENV": "PROD",
        "DB_TYPE": "dynamo",
        "LOCAL_DB_TABLE": "Contacts",
        "LOCAL_DB_ACCESS_KEY": "123",
        "LOCAL_DB_SECRET_ACCESS_KEY": "abc",
        "LOCAL_DB_HOST": "http://dynamo-local",
        "LOCAL_DB_PORT": "0000",
        "LOCAL_DB_REGION": "localhost"
    },

    "deleteContactFunction": {
        "PHONE_BOOK": "Contacts",
        "AWS_NODEJS_CONNECTION_REUSE_ENABLED": "1",
        "RUN_ENV": "PROD",
        "DB_TYPE": "dynamo",
        "LOCAL_DB_TABLE": "Contacts",
        "LOCAL_DB_ACCESS_KEY": "123",
        "LOCAL_DB_SECRET_ACCESS_KEY": "abc",
        "LOCAL_DB_HOST": "http://dynamo-local",
        "LOCAL_DB_PORT": "0000",
        "LOCAL_DB_REGION": "localhost"
    },

    "getContactsFunction": {
        "PHONE_BOOK": "Contacts",
        "AWS_NODEJS_CONNECTION_REUSE_ENABLED": "1",
        "RUN_ENV": "PROD",
        "DB_TYPE": "dynamo",
        "LOCAL_DB_TABLE": "Contacts",
        "LOCAL_DB_ACCESS_KEY": "123",
        "LOCAL_DB_SECRET_ACCESS_KEY": "abc",
        "LOCAL_DB_HOST": "http://dynamo-local",
        "LOCAL_DB_PORT": "0000",
        "LOCAL_DB_REGION": "localhost"
    },
    "presignedURLFunction": {
        "PHONE_BOOK": "Contacts",
        "AWS_NODEJS_CONNECTION_REUSE_ENABLED": "1",
        "RUN_ENV": "PROD",
        "DB_TYPE": "dynamo",
        "LOCAL_DB_TABLE": "Contacts",
        "LOCAL_DB_ACCESS_KEY": "123",
        "LOCAL_DB_SECRET_ACCESS_KEY": "abc",
        "LOCAL_DB_HOST": "http://dynamo-local",
        "LOCAL_DB_PORT": "0000",
        "LOCAL_DB_REGION": "localhost",
        "UploadBucket": "phonenook-contact-bucket-psl"
    },
    "saveCSVFunction": {
        "PHONE_BOOK": "Contacts",
        "AWS_NODEJS_CONNECTION_REUSE_ENABLED": "1",
        "RUN_ENV": "PROD",
        "DB_TYPE": "dynamo",
        "LOCAL_DB_TABLE": "Contacts",
        "LOCAL_DB_ACCESS_KEY": "123",
        "LOCAL_DB_SECRET_ACCESS_KEY": "abc",
        "LOCAL_DB_HOST": "http://dynamo-local",
        "LOCAL_DB_PORT": "0000",
        "LOCAL_DB_REGION": "localhost",
        "UploadBucket": "phonenook-contact-bucket-psl"
    }
    
}